…
<img src="man/figures/README-example-1.png" width="100%" />

    #> Returning moedized data across n_top_vars

<img src="man/figures/README-example-2.png" width="100%" />

    #> # A tibble: 150 x 10
    #>    Sepal.Length Sepal.Width Petal.Length Petal.Width Species Petal.Length_moedi~
    #>           <dbl>       <dbl>        <dbl>       <dbl> <fct>   <fct>              
    #>  1          5.1         3.5          1.4         0.2 setosa  [0.994,2.48]       
    #>  2          4.9         3            1.4         0.2 setosa  [0.994,2.48]       
    #>  3          4.7         3.2          1.3         0.2 setosa  [0.994,2.48]       
    #>  4          4.6         3.1          1.5         0.2 setosa  [0.994,2.48]       
    #>  5          5           3.6          1.4         0.2 setosa  [0.994,2.48]       
    #>  6          5.4         3.9          1.7         0.4 setosa  [0.994,2.48]       
    #>  7          4.6         3.4          1.4         0.3 setosa  [0.994,2.48]       
    #>  8          5           3.4          1.5         0.2 setosa  [0.994,2.48]       
    #>  9          4.4         2.9          1.4         0.2 setosa  [0.994,2.48]       
    #> 10          4.9         3.1          1.5         0.1 setosa  [0.994,2.48]       
    #> # ... with 140 more rows, and 4 more variables: Petal.Width_moedized <fct>,
    #> #   Sepal.Length_moedized <fct>, Sepal.Width_moedized <fct>,
    #> #   moeda_intersections <chr>
…
<img src="man/figures/README-moreexamples-1.png" width="100%" />

    #> Returning moedized data across n_top_vars

<img src="man/figures/README-moreexamples-2.png" width="100%" />

    #> # A tibble: 32 x 16
    #>      mpg   cyl  disp    hp  drat    wt  qsec    vs    am  gear  carb
    #>    <dbl> <dbl> <dbl> <dbl> <dbl> <dbl> <dbl> <dbl> <dbl> <dbl> <dbl>
    #>  1  21       6  160    110  3.9   2.62  16.5     0     1     4     4
    #>  2  21       6  160    110  3.9   2.88  17.0     0     1     4     4
    #>  3  22.8     4  108     93  3.85  2.32  18.6     1     1     4     1
    #>  4  21.4     6  258    110  3.08  3.22  19.4     1     0     3     1
    #>  5  18.7     8  360    175  3.15  3.44  17.0     0     0     3     2
    #>  6  18.1     6  225    105  2.76  3.46  20.2     1     0     3     1
    #>  7  14.3     8  360    245  3.21  3.57  15.8     0     0     3     4
    #>  8  24.4     4  147.    62  3.69  3.19  20       1     0     4     2
    #>  9  22.8     4  141.    95  3.92  3.15  22.9     1     0     4     2
    #> 10  19.2     6  168.   123  3.92  3.44  18.3     1     0     4     4
    #> # ... with 22 more rows, and 5 more variables: disp_moedized <fct>,
    #> #   wt_moedized <fct>, hp_moedized <fct>, cyl_moedized <dbl>,
    #> #   moeda_intersections <chr>
…
<img src="man/figures/README-moreexamples2-1.png" width="100%" />

    #> Returning moedized data across n_top_vars

<img src="man/figures/README-moreexamples2-2.png" width="100%" />

    #> # A tibble: 10,010 x 18
    #>    name   year month   day  hour   lat  long status      category  wind pressure
    #>    <chr> <dbl> <dbl> <int> <dbl> <dbl> <dbl> <chr>       <ord>    <int>    <int>
    #>  1 Amy    1975     6    27     0  27.5 -79   tropical d~ -1          25     1013
    #>  2 Amy    1975     6    27     6  28.5 -79   tropical d~ -1          25     1013
    #>  3 Amy    1975     6    27    12  29.5 -79   tropical d~ -1          25     1013
    #>  4 Amy    1975     6    27    18  30.5 -79   tropical d~ -1          25     1013
    #>  5 Amy    1975     6    28     0  31.5 -78.8 tropical d~ -1          25     1012
    #>  6 Amy    1975     6    28     6  32.4 -78.7 tropical d~ -1          25     1012
    #>  7 Amy    1975     6    28    12  33.3 -78   tropical d~ -1          25     1011
    #>  8 Amy    1975     6    28    18  34   -77   tropical d~ -1          30     1006
    #>  9 Amy    1975     6    29     0  34.4 -75.8 tropical s~ 0           35     1004
    #> 10 Amy    1975     6    29     6  34   -74.8 tropical s~ 0           40     1002
    #> # ... with 10,000 more rows, and 7 more variables: ts_diameter <dbl>,
    #> #   hu_diameter <dbl>, wind_moedized <fct>, category_moedized <ord>,
    #> #   hu_diameter_moedized <fct>, ts_diameter_moedized <fct>,
    #> #   moeda_intersections <chr>
